Chapter 10 - Relational Data with {dplyr}
…
airports gives information about each airport, identified by the faa airport code:

airports
#> # A tibble: 1,458 x 8
#>    faa   name                       lat    lon   alt    tz dst   tzone          
#>    <chr> <chr>                    <dbl>  <dbl> <dbl> <dbl> <chr> <chr>          
#>  1 04G   Lansdowne Airport         41.1  -80.6  1044    -5 A     America/New_Yo~
#>  2 06A   Moton Field Municipal A~  32.5  -85.7   264    -6 A     America/Chicago
#>  3 06C   Schaumburg Regional       42.0  -88.1   801    -6 A     America/Chicago
#>  4 06N   Randall Airport           41.4  -74.4   523    -5 A     America/New_Yo~
#>  5 09J   Jekyll Island Airport     31.1  -81.4    11    -5 A     America/New_Yo~
#>  6 0A9   Elizabethton Municipal ~  36.4  -82.2  1593    -5 A     America/New_Yo~
#>  7 0G6   Williams County Airport   41.5  -84.5   730    -5 A     America/New_Yo~
#>  8 0G7   Finger Lakes Regional A~  42.9  -76.8   492    -5 A     America/New_Yo~
#>  9 0P2   Shoestring Aviation Air~  39.8  -76.6  1000    -5 U     America/New_Yo~
#> 10 0S9   Jefferson County Intl     48.1 -123.    108    -8 A     America/Los_An~
#> # ... with 1,448 more rows

planes gives information about each plane, identified by its tailnum:

planes
#> # A tibble: 3,322 x 9
#>    tailnum  year type          manufacturer   model  engines seats speed engine 
#>    <chr>   <int> <chr>         <chr>          <chr>    <int> <int> <int> <chr>  
#>  1 N10156   2004 Fixed wing m~ EMBRAER        EMB-1~       2    55    NA Turbo-~
#>  2 N102UW   1998 Fixed wing m~ AIRBUS INDUST~ A320-~       2   182    NA Turbo-~
#>  3 N103US   1999 Fixed wing m~ AIRBUS INDUST~ A320-~       2   182    NA Turbo-~
#>  4 N104UW   1999 Fixed wing m~ AIRBUS INDUST~ A320-~       2   182    NA Turbo-~
#>  5 N10575   2002 Fixed wing m~ EMBRAER        EMB-1~       2    55    NA Turbo-~
#>  6 N105UW   1999 Fixed wing m~ AIRBUS INDUST~ A320-~       2   182    NA Turbo-~
#>  7 N107US   1999 Fixed wing m~ AIRBUS INDUST~ A320-~       2   182    NA Turbo-~
#>  8 N108UW   1999 Fixed wing m~ AIRBUS INDUST~ A320-~       2   182    NA Turbo-~
#>  9 N109UW   1999 Fixed wing m~ AIRBUS INDUST~ A320-~       2   182    NA Turbo-~
#> 10 N110UW   1999 Fixed wing m~ AIRBUS INDUST~ A320-~       2   182    NA Turbo-~
#> # ... with 3,312 more rows

weather gives the weather at each NYC airport for each hour:

weather
#> # A tibble: 26,115 x 15
#>    origin  year month   day  hour  temp  dewp humid wind_dir wind_speed
#>    <chr>  <int> <int> <int> <int> <dbl> <dbl> <dbl>    <dbl>      <dbl>
#>  1 EWR     2013     1     1     1  39.0  26.1  59.4      270      10.4 
#>  2 EWR     2013     1     1     2  39.0  27.0  61.6      250       8.06
#>  3 EWR     2013     1     1     3  39.0  28.0  64.4      240      11.5 
#>  4 EWR     2013     1     1     4  39.9  28.0  62.2      250      12.7 
#>  5 EWR     2013     1     1     5  39.0  28.0  64.4      260      12.7 
#>  6 EWR     2013     1     1     6  37.9  28.0  67.2      240      11.5 
#>  7 EWR     2013     1     1     7  39.0  28.0  64.4      240      15.0 
#>  8 EWR     2013     1     1     8  39.9  28.0  62.2      250      10.4 
#>  9 EWR     2013     1     1     9  39.9  28.0  62.2      260      15.0 
#> 10 EWR     2013     1     1    10  41    28.0  59.6      260      13.8 
#> # ... with 26,105 more rows, and 5 more variables: wind_gust <dbl>,
#> #   precip <dbl>, pressure <dbl>, visib <dbl>, time_hour <dttm>

flights gives the flights departing a NYC airport:

flights
#> # A tibble: 336,776 x 19
#>     year month   day dep_time sched_dep_time dep_delay arr_time sched_arr_time
#>    <int> <int> <int>    <int>          <int>     <dbl>    <int>          <int>
#>  1  2013     1     1      517            515         2      830            819
#>  2  2013     1     1      533            529         4      850            830
#>  3  2013     1     1      542            540         2      923            850
#>  4  2013     1     1      544            545        -1     1004           1022
#>  5  2013     1     1      554            600        -6      812            837
#>  6  2013     1     1      554            558        -4      740            728
#>  7  2013     1     1      555            600        -5      913            854
#>  8  2013     1     1      557            600        -3      709            723
#>  9  2013     1     1      557            600        -3      838            846
#> 10  2013     1     1      558            600        -2      753            745
#> # ... with 336,766 more rows, and 11 more variables: arr_delay <dbl>,
#> #   carrier <chr>, flight <int>, tailnum <chr>, origin <chr>, dest <chr>,
#> #   air_time <dbl>, distance <dbl>, hour <dbl>, minute <dbl>, time_hour <dttm>
…
weather %>% 
  count(year, month, day, hour, origin, time_hour) %>% 
  filter(n > 1)
#> # A tibble: 0 x 7
#> # ... with 7 variables: year , month , day , hour ,
#> #   origin , time_hour , n 

weather %>% 
  print(width = Inf)
#> # A tibble: 26,115 x 15
#>    origin  year month   day  hour  temp  dewp humid wind_dir wind_speed
#>                      
#>  1 EWR     2013     1     1     1  39.0  26.1  59.4      270      10.4 
#>  2 EWR     2013     1     1     2  39.0  27.0  61.6      250       8.06
#>  3 EWR     2013     1     1     3  39.0  28.0  64.4      240      11.5 
#>  4 EWR     2013     1     1     4  39.9  28.0  62.2      250      12.7 
#>  5 EWR     2013     1     1     5  39.0  28.0  64.4      260      12.7 
#>  6 EWR     2013     1     1     6  37.9  28.0  67.2      240      11.5 
#>  7 EWR     2013     1     1     7  39.0  28.0  64.4      240      15.0 
#>  8 EWR     2013     1     1     8  39.9  28.0  62.2      250      10.4 
#>  9 EWR     2013     1     1     9  39.9  28.0  62.2      260      15.0 
#> 10 EWR     2013     1     1    10  41    28.0  59.6      260      13.8 
#>    wind_gust precip pressure visib time_hour          
#>                             
#>  1        NA      0    1012     10 2013-01-01 01:00:00
#>  2        NA      0    1012.    10 2013-01-01 02:00:00
#>  3        NA      0    1012.    10 2013-01-01 03:00:00
#>  4        NA      0    1012.    10 2013-01-01 04:00:00
#>  5        NA      0    1012.    10 2013-01-01 05:00:00
#>  6        NA      0    1012.    10 2013-01-01 06:00:00
#>  7        NA      0    1012.    10 2013-01-01 07:00:00
#>  8        NA      0    1012.    10 2013-01-01 08:00:00
#>  9        NA      0    1013.    10 2013-01-01 09:00:00
#> 10        NA      0    1012.    10 2013-01-01 10:00:00
#> # ... with 26,105 more rows
…
When even a combination of columns does not seem to identify an observation you may add your own primary key. The best is to use mutate with row_number(). This is called a surrogate key.

Exercises

Add a surrogate key to flights.

(flights_pk <- flights %>% 
  mutate(pk = row_number())) %T>%
   print(width = Inf)
#> # A tibble: 336,776 x 20
#>     year month   day dep_time sched_dep_time dep_delay arr_time sched_arr_time
#>    <int> <int> <int>    <int>          <int>     <dbl>    <int>          <int>
#>  1  2013     1     1      517            515         2      830            819
#>  2  2013     1     1      533            529         4      850            830
#>  3  2013     1     1      542            540         2      923            850
#>  4  2013     1     1      544            545        -1     1004           1022
#>  5  2013     1     1      554            600        -6      812            837
#>  6  2013     1     1      554            558        -4      740            728
#>  7  2013     1     1      555            600        -5      913            854
#>  8  2013     1     1      557            600        -3      709            723
#>  9  2013     1     1      557            600        -3      838            846
#> 10  2013     1     1      558            600        -2      753            745
#>    arr_delay carrier flight tailnum origin dest  air_time distance  hour minute
#>        <dbl> <chr>    <int> <chr>   <chr>  <chr>    <dbl>    <dbl> <dbl>  <dbl>
#>  1        11 UA        1545 N14228  EWR    IAH        227     1400     5     15
#>  2        20 UA        1714 N24211  LGA    IAH        227     1416     5     29
#>  3        33 AA        1141 N619AA  JFK    MIA        160     1089     5     40
#>  4       -18 B6         725 N804JB  JFK    BQN        183     1576     5     45
#>  5       -25 DL         461 N668DN  LGA    ATL        116      762     6      0
#>  6        12 UA        1696 N39463  EWR    ORD        150      719     5     58
#>  7        19 B6         507 N516JB  EWR    FLL        158     1065     6      0
#>  8       -14 EV        5708 N829AS  LGA    IAD         53      229     6      0
#>  9        -8 B6          79 N593JB  JFK    MCO        140      944     6      0
#> 10         8 AA         301 N3ALAA  LGA    ORD        138      733     6      0
#>    time_hour              pk
#>    <dttm>              <int>
#>  1 2013-01-01 05:00:00     1
#>  2 2013-01-01 05:00:00     2
#>  3 2013-01-01 05:00:00     3
#>  4 2013-01-01 05:00:00     4
#>  5 2013-01-01 06:00:00     5
#>  6 2013-01-01 05:00:00     6
#>  7 2013-01-01 06:00:00     7
#>  8 2013-01-01 06:00:00     8
#>  9 2013-01-01 06:00:00     9
#> 10 2013-01-01 06:00:00    10
#> # ... with 336,766 more rows
#> # A tibble: 336,776 x 20
#>     year month   day dep_time sched_dep_time dep_delay arr_time sched_arr_time
#>    <int> <int> <int>    <int>          <int>     <dbl>    <int>          <int>
#>  1  2013     1     1      517            515         2      830            819
#>  2  2013     1     1      533            529         4      850            830
#>  3  2013     1     1      542            540         2      923            850
#>  4  2013     1     1      544            545        -1     1004           1022
#>  5  2013     1     1      554            600        -6      812            837
#>  6  2013     1     1      554            558        -4      740            728
#>  7  2013     1     1      555            600        -5      913            854
#>  8  2013     1     1      557            600        -3      709            723
#>  9  2013     1     1      557            600        -3      838            846
#> 10  2013     1     1      558            600        -2      753            745
#> # ... with 336,766 more rows, and 12 more variables: arr_delay <dbl>,
#> #   carrier <chr>, flight <int>, tailnum <chr>, origin <chr>, dest <chr>,
#> #   air_time <dbl>, distance <dbl>, hour <dbl>, minute <dbl>, time_hour <dttm>,
#> #   pk <int>
…
data(package = ‘name_of_pkg’)

data("Batting", package = "Lahman")
# data("Salaries", package = "Lahman")
# data("People", package = "Lahman")

as_tibble(Batting) %>% 
# first try
count(playerID, yearID, teamID) %>% 
filter(n > 1)
#> # A tibble: 70 x 4
#>    playerID  yearID teamID     n
#>    <chr>      <int> <fct>  <int>
#>  1 alyeabr01   1972 OAK        2
#>  2 anderjo01   1898 BRO        2
#>  3 baldwja01   2005 BAL        2
#>  4 behrmha01   1947 BRO        2
#>  5 chouife01   1914 BRF        3
#>  6 clarkje02   2003 TEX        2
#>  7 clarkni01   1905 CLE        2
#>  8 cranddo01   1913 NY1        2
#>  9 cranesa01   1890 NY1        2
#> 10 donahpa01   1910 PHA        2
#> # ... with 60 more rows
…
Looks like the key is playerID, yearID, teamID and stint.

babynames::babynames

data(babynames, package = "babynames")
class(babynames)
#> [1] "tbl_df"     "tbl"        "data.frame"
babynames
#> # A tibble: 1,924,665 x 5
#>     year sex   name          n   prop
#>    <dbl> <chr> <chr>     <int>  <dbl>
#>  1  1880 F     Mary       7065 0.0724
#>  2  1880 F     Anna       2604 0.0267
#>  3  1880 F     Emma       2003 0.0205
#>  4  1880 F     Elizabeth  1939 0.0199
#>  5  1880 F     Minnie     1746 0.0179
#>  6  1880 F     Margaret   1578 0.0162
#>  7  1880 F     Ida        1472 0.0151
#>  8  1880 F     Alice      1414 0.0145
#>  9  1880 F     Bertha     1320 0.0135
#> 10  1880 F     Sarah      1288 0.0132
#> # ... with 1,924,655 more rows
…
babynames %>% 
  group_by(year, sex, name) %>% 
  summarise(nn = n())
#> # A tibble: 1,924,665 x 4
#> # Groups:   year, sex [276]
#>     year sex   name        nn
#>    <dbl> <chr> <chr>    <int>
#>  1  1880 F     Abbie        1
#>  2  1880 F     Abby         1
#>  3  1880 F     Abigail      1
#>  4  1880 F     Ada          1
#>  5  1880 F     Adah         1
#>  6  1880 F     Adaline      1
#>  7  1880 F     Adda         1
#>  8  1880 F     Addie        1
#>  9  1880 F     Adela        1
#> 10  1880 F     Adelaide     1
#> # ... with 1,924,655 more rows
…
fueleconomy::vehicles %>% 
  count(id) %>% 
  filter(n > 1)
#> # A tibble: 0 x 2
#> # ... with 2 variables: id <dbl>, n <int>

Looks like the key is id.

ggplot2::diamonds

ggplot2::diamonds %>% 
  count(carat, cut, color, clarity, price, depth, table, x, y, z) %>% 
  filter(n > 1)
#> # A tibble: 143 x 11
#>    carat cut       color clarity price depth table     x     y     z     n
#>    <dbl> <ord>     <ord> <ord>   <int> <dbl> <dbl> <dbl> <dbl> <dbl> <int>
#>  1  0.3  Good      J     VS1       394  63.4    57  4.23  4.26  2.69     2
#>  2  0.3  Very Good G     VS2       526  63      55  4.29  4.31  2.71     2
#>  3  0.3  Very Good J     VS1       506  63.4    57  4.26  4.23  2.69     2
#>  4  0.3  Premium   D     SI1       709  62.2    58  4.31  4.28  2.67     2
#>  5  0.3  Ideal     G     VS2       675  63      55  4.31  4.29  2.71     2
#>  6  0.3  Ideal     G     IF        863  62.1    55  4.32  4.35  2.69     2
#>  7  0.3  Ideal     H     SI1       450  62.2    57  4.26  4.29  2.66     2
#>  8  0.3  Ideal     H     SI1       450  62.2    57  4.27  4.28  2.66     2
#>  9  0.31 Good      D     SI1       571  63.5    56  4.29  4.31  2.73     2
#> 10  0.31 Very Good D     SI1       732  63.5    56  4.31  4.29  2.73     2
#> # ... with 133 more rows
…
Mutating joins

Mutating joins

Just as mutate() adds new variables to a dataset mutating joins joins two datasets and tags on the extra variables on the right.

Tables are joined using keys.

Additional variables are copied over from one table to another.

(flights2 <- flights %>% 
   select(year:day, hour, origin, dest, tailnum, carrier)
)
#> # A tibble: 336,776 x 8
#>     year month   day  hour origin dest  tailnum carrier
#>    <int> <int> <int> <dbl> <chr>  <chr> <chr>   <chr>  
#>  1  2013     1     1     5 EWR    IAH   N14228  UA     
#>  2  2013     1     1     5 LGA    IAH   N24211  UA     
#>  3  2013     1     1     5 JFK    MIA   N619AA  AA     
#>  4  2013     1     1     5 JFK    BQN   N804JB  B6     
#>  5  2013     1     1     6 LGA    ATL   N668DN  DL     
#>  6  2013     1     1     5 EWR    ORD   N39463  UA     
#>  7  2013     1     1     6 EWR    FLL   N516JB  B6     
#>  8  2013     1     1     6 LGA    IAD   N829AS  EV     
#>  9  2013     1     1     6 JFK    MCO   N593JB  B6     
#> 10  2013     1     1     6 LGA    ORD   N3ALAA  AA     
#> # ... with 336,766 more rows

Let’s say we want to add the actual airline.

Need to figure out where we would get this … looking at our tables it seems airlines would be appropriate.

Need to figure out which field we can use to join it to flights … looks like carrier will do.

flights2 %>% 
  left_join(airlines, by = "carrier") %>% 
  print(width = Inf)
#> # A tibble: 336,776 x 9
#>     year month   day  hour origin dest  tailnum carrier name                    
#>    <int> <int> <int> <dbl> <chr>  <chr> <chr>   <chr>   <chr>                   
#>  1  2013     1     1     5 EWR    IAH   N14228  UA      United Air Lines Inc.   
#>  2  2013     1     1     5 LGA    IAH   N24211  UA      United Air Lines Inc.   
#>  3  2013     1     1     5 JFK    MIA   N619AA  AA      American Airlines Inc.  
#>  4  2013     1     1     5 JFK    BQN   N804JB  B6      JetBlue Airways         
#>  5  2013     1     1     6 LGA    ATL   N668DN  DL      Delta Air Lines Inc.    
#>  6  2013     1     1     5 EWR    ORD   N39463  UA      United Air Lines Inc.   
#>  7  2013     1     1     6 EWR    FLL   N516JB  B6      JetBlue Airways         
#>  8  2013     1     1     6 LGA    IAD   N829AS  EV      ExpressJet Airlines Inc.
#>  9  2013     1     1     6 JFK    MCO   N593JB  B6      JetBlue Airways         
#> 10  2013     1     1     6 LGA    ORD   N3ALAA  AA      American Airlines Inc.  
#> # ... with 336,766 more rows
…
Notice that we have two key == 2 in table x and two key == 2 in table y. That means that both the key == 2 in x matches both the key == 2 in y resulting in 4 entries in the resulting table.

Defining Key Columns

Defining Key Columns

We’ve been lucky so far that the key column in both tables we are joining is called key. That’s not usually the case, and tables often have composite keys (keys made up of several columns).

The default joining happens using by = NULL, which uses all variables that appear in both tables. For example, the flights and weather tables match on their common variables: year, month, day, hour and origin.

flights2 %>% 
  left_join(weather)
#> Joining, by = c("year", "month", "day", "hour", "origin")
#> # A tibble: 336,776 x 18
#>     year month   day  hour origin dest  tailnum carrier  temp  dewp humid
#>    <int> <int> <int> <dbl> <chr>  <chr> <chr>   <chr>   <dbl> <dbl> <dbl>
#>  1  2013     1     1     5 EWR    IAH   N14228  UA       39.0  28.0  64.4
#>  2  2013     1     1     5 LGA    IAH   N24211  UA       39.9  25.0  54.8
#>  3  2013     1     1     5 JFK    MIA   N619AA  AA       39.0  27.0  61.6
#>  4  2013     1     1     5 JFK    BQN   N804JB  B6       39.0  27.0  61.6
#>  5  2013     1     1     6 LGA    ATL   N668DN  DL       39.9  25.0  54.8
#>  6  2013     1     1     5 EWR    ORD   N39463  UA       39.0  28.0  64.4
#>  7  2013     1     1     6 EWR    FLL   N516JB  B6       37.9  28.0  67.2
#>  8  2013     1     1     6 LGA    IAD   N829AS  EV       39.9  25.0  54.8
#>  9  2013     1     1     6 JFK    MCO   N593JB  B6       37.9  27.0  64.3
#> 10  2013     1     1     6 LGA    ORD   N3ALAA  AA       39.9  25.0  54.8
#> # ... with 336,766 more rows, and 7 more variables: wind_dir <dbl>,
#> #   wind_speed <dbl>, wind_gust <dbl>, precip <dbl>, pressure <dbl>,
#> #   visib <dbl>, time_hour <dttm>
…
