Chapter 11 - Strings with {stringr}
…
Exercises

How would you match the literal string "$^$"?

(x <- "How would you match the literal string $^$?")
#> [1] "How would you match the literal string $^$?"
str_view(x, "\\$\\^\\$")

Given the corpus of common words in stringr::words, create regular expressions that find all words that:

Start with “y”.

stringr::words %>% 
    as_tibble()
#> # A tibble: 980 x 1
#>    value   
#>    <chr>   
#>  1 a       
#>  2 able    
#>  3 about   
#>  4 absolute
#>  5 accept  
#>  6 account 
#>  7 achieve 
#>  8 across  
#>  9 act     
#> 10 active  
#> # ... with 970 more rows
…
words[str_detect(words, "x$")]
#> [1] "box" "sex" "six" "tax"
# str_subset() is a wrapper around x[str_detect(x, pattern)]
str_subset(words, "x$")
#> [1] "box" "sex" "six" "tax"

filter(str_detect())

When we want to find matches in a column in a dataframe we can combine str_detect() with filter().

(df <- tibble(
  word = words,
  i = seq_along(word)
))
#> # A tibble: 980 x 2
#>    word         i
#>        
#>  1 a            1
#>  2 able         2
#>  3 about        3
#>  4 absolute     4
#>  5 accept       5
#>  6 account      6
#>  7 achieve      7
#>  8 across       8
#>  9 act          9
#> 10 active      10
#> # ... with 970 more rows
…
We often use str_count() with mutate().

df %>% 
  mutate(vowels = str_count(word, "[aeiou]"),
         consonants = str_count(word, "[^aeiou]"))
#> # A tibble: 980 x 4
#>    word         i vowels consonants
#>    <chr>    <int>  <int>      <int>
#>  1 a            1      1          0
#>  2 able         2      2          2
#>  3 about        3      3          2
#>  4 absolute     4      4          4
#>  5 accept       5      2          4
#>  6 account      6      3          4
#>  7 achieve      7      4          3
#>  8 across       8      2          4
#>  9 act          9      1          2
#> 10 active      10      3          3
#> # ... with 970 more rows
…
str_detect(c("xray", "box", "text", "vex"), reg_ex)
#> [1]  TRUE  TRUE FALSE  TRUE

reg_ex <- "(^x.*|.*x$)"
str_detect(c("xray", "box", "text", "vex"), "^x") |
  str_detect(c("xray", "box", "text", "vex"), "x$")
#> [1]  TRUE  TRUE FALSE  TRUE

Find all words that start with a vowel and end with a consonant.

reg_ex <- "^[aeiou].*[^aeiou]$"
df %>% 
  filter(str_detect(word, reg_ex))
#> # A tibble: 122 x 2
#>    word        i
#>    <chr>   <int>
#>  1 about       3
#>  2 accept      5
#>  3 account     6
#>  4 across      8
#>  5 act         9
#>  6 actual     11
#>  7 add        12
#>  8 address    13
#>  9 admit      14
#> 10 affect     16
#> # ... with 112 more rows
…
# https://stackoverflow.com/questions/54267095/what-is-the-regex-to-match-the-words-containing-all-the-vowels
reg_ex <- "\\b(?=\\w*?a)(?=\\w*?e)(?=\\w*?i)(?=\\w*?o)(?=\\w*?u)[a-zA-Z]+\\b"
str_detect(c("eunomia", "eutopia", "sequoia"), reg_ex)
#> [1] TRUE TRUE TRUE
str_view(c("eunomia", "eutopia", "sequoia"), reg_ex)

What word has the highest number of vowels? What word has the highest proportion of vowels? (Hint: what is the denominator?)

df %>% 
  mutate(vowels = str_count(word, "[aeiou]+"),
         len_word = str_length(word),
         prop_vowels = vowels / len_word) %>% 
  arrange(-prop_vowels)
#> # A tibble: 980 x 5
#>    word        i vowels len_word prop_vowels
#>    <chr>   <int>  <int>    <int>       <dbl>
#>  1 a           1      1        1       1    
#>  2 age        22      2        3       0.667
#>  3 ago        24      2        3       0.667
#>  4 eye       296      2        3       0.667
#>  5 one       577      2        3       0.667
#>  6 use       912      2        3       0.667
#>  7 aware      63      3        5       0.6  
#>  8 unite     906      3        5       0.6  
#>  9 america    36      4        7       0.571
#> 10 educate   258      4        7       0.571
#> # ... with 970 more rows

df %>% 
  mutate(vowels = str_count(word, "[aeiou]+"),
         len_word = str_length(word),
         prop_vowels = vowels / len_word) %>% 
  arrange(-vowels, -prop_vowels)          
#> # A tibble: 980 x 5
#>    word         i vowels len_word prop_vowels
#>    <chr>    <int>  <int>    <int>       <dbl>
#>  1 america     36      4        7       0.571
#>  2 educate    258      4        7       0.571
#>  3 imagine    415      4        7       0.571
#>  4 operate    580      4        7       0.571
#>  5 absolute     4      4        8       0.5  
#>  6 definite   220      4        8       0.5  
#>  7 evidence   283      4        8       0.5  
#>  8 exercise   288      4        8       0.5  
#>  9 organize   585      4        8       0.5  
#> 10 original   586      4        8       0.5  
#> # ... with 970 more rows
…
