Chapter 12 - Factors with {forcats}
…
To find the levels of a factor:

levels(f2)
#> [1] "Dec" "Apr" "Jan" "Mar"

Our Dataset

Our Dataset

Sample of data from the General Social Survey.

gss_cat
#> # A tibble: 21,483 x 9
#>     year marital     age race  rincome    partyid     relig     denom    tvhours
#>    <int> <fct>     <int> <fct> <fct>      <fct>       <fct>     <fct>      <int>
#>  1  2000 Never ma~    26 White $8000 to ~ Ind,near r~ Protesta~ Souther~      12
#>  2  2000 Divorced     48 White $8000 to ~ Not str re~ Protesta~ Baptist~      NA
#>  3  2000 Widowed      67 White Not appli~ Independent Protesta~ No deno~       2
#>  4  2000 Never ma~    39 White Not appli~ Ind,near r~ Orthodox~ Not app~       4
#>  5  2000 Divorced     25 White Not appli~ Not str de~ None      Not app~       1
#>  6  2000 Married      25 White $20000 - ~ Strong dem~ Protesta~ Souther~      NA
#>  7  2000 Never ma~    36 White $25000 or~ Not str re~ Christian Not app~       3
#>  8  2000 Divorced     44 White $7000 to ~ Ind,near d~ Protesta~ Luthera~      NA
#>  9  2000 Married      44 White $25000 or~ Not str de~ Protesta~ Other          0
#> 10  2000 Married      47 White $25000 or~ Strong rep~ Protesta~ Souther~       3
#> # ... with 21,473 more rows
…
most_common_partyid <- gss_cat %>% 
  count(partyid, sort = TRUE) %>% 
  head(1)

The most common religion is Protestant with 10846 observations out of 21483 in that category.

The most common partyid is Independent with 4119 observations out of 21483 in that category.

Which relig does denom (denomination) apply to? How can you find out with a table? How can you find out with a visualisation?

gss_cat %>% 
  count(relig, denom, sort=TRUE)
#> # A tibble: 47 x 3
#>    relig      denom                n
#>    <fct>      <fct>            <int>
#>  1 Catholic   Not applicable    5124
#>  2 None       Not applicable    3523
#>  3 Protestant Other             2534
#>  4 Protestant Southern baptist  1536
#>  5 Protestant Baptist-dk which  1457
#>  6 Protestant No denomination   1224
#>  7 Protestant United methodist  1067
#>  8 Christian  No denomination    452
#>  9 Protestant Episcopal          397
#> 10 Jewish     Not applicable     388
#> # ... with 37 more rows
…
Why do you think the average age for “Not applicable” is so high?

Maybe these are retirees that don’t earn a monthly income any longer, hence they marked it as Not applicable.

Another type of reordering is useful when you are colouring the lines on a plot. fct_reorder2() reorders the factor by the y values associated with the largest x values. The legend lines up much nicer and is easier to read.

(by_age <- gss_cat %>% 
  filter(!is.na(age)) %>% 
  count(age, marital) %>% 
  group_by(age) %>% 
  mutate(prop = n / sum(n)))
#> # A tibble: 351 x 4
#> # Groups:   age [72]
#>      age marital           n    prop
#>    <int> <fct>         <int>   <dbl>
#>  1    18 Never married    89 0.978  
#>  2    18 Married           2 0.0220 
#>  3    19 Never married   234 0.940  
#>  4    19 Divorced          3 0.0120 
#>  5    19 Widowed           1 0.00402
#>  6    19 Married          11 0.0442 
#>  7    20 Never married   227 0.904  
#>  8    20 Separated         1 0.00398
#>  9    20 Divorced          2 0.00797
#> 10    20 Married          21 0.0837 
#> # ... with 341 more rows
…
