Chapter 13 - Dates and Time with {lubridate}
…
From Individual Components

Sometimes date and time components are scattered over multiple columns in your data. This is the case in the flights data.

You can use make_date() and make_datetime() to create a date or dttm field.

flights %>% 
  select(year:day, hour, minute)
#> # A tibble: 336,776 x 5
#>     year month   day  hour minute
#>         
#>  1  2013     1     1     5     15
#>  2  2013     1     1     5     29
#>  3  2013     1     1     5     40
#>  4  2013     1     1     5     45
#>  5  2013     1     1     6      0
#>  6  2013     1     1     5     58
#>  7  2013     1     1     6      0
#>  8  2013     1     1     6      0
#>  9  2013     1     1     6      0
#> 10  2013     1     1     6      0
#> # ... with 336,766 more rows

flights %>% 
  select(year:day, hour, minute) %>% 
  mutate(
    departure = make_datetime(year = year, month = month, day = day, 
                              hour = hour, min = minute)
  )
#> # A tibble: 336,776 x 6
#>     year month   day  hour minute departure          
#>                       
#>  1  2013     1     1     5     15 2013-01-01 05:15:00
#>  2  2013     1     1     5     29 2013-01-01 05:29:00
#>  3  2013     1     1     5     40 2013-01-01 05:40:00
#>  4  2013     1     1     5     45 2013-01-01 05:45:00
#>  5  2013     1     1     6      0 2013-01-01 06:00:00
#>  6  2013     1     1     5     58 2013-01-01 05:58:00
#>  7  2013     1     1     6      0 2013-01-01 06:00:00
#>  8  2013     1     1     6      0 2013-01-01 06:00:00
#>  9  2013     1     1     6      0 2013-01-01 06:00:00
#> 10  2013     1     1     6      0 2013-01-01 06:00:00
#> # ... with 336,766 more rows
…
(flights_dt <- flights %>% 
  filter(!is.na(dep_time), !is.na(arr_time)) %>% 
  mutate(
    dep_time = make_dttm(year, month, day, dep_time),
    sched_dep_time = make_dttm(year, month, day, sched_dep_time),
    arr_time = make_dttm(year, month, day, arr_time),
    sched_arr_time = make_dttm(year, month, day, sched_arr_time)
  ) %>% 
  select(origin, dest, ends_with("delay"), ends_with("time")))
#> # A tibble: 328,063 x 9
#>    origin dest  dep_delay arr_delay dep_time            sched_dep_time     
#>                                            
#>  1 EWR    IAH           2        11 2013-01-01 05:17:00 2013-01-01 05:15:00
#>  2 LGA    IAH           4        20 2013-01-01 05:33:00 2013-01-01 05:29:00
#>  3 JFK    MIA           2        33 2013-01-01 05:42:00 2013-01-01 05:40:00
#>  4 JFK    BQN          -1       -18 2013-01-01 05:44:00 2013-01-01 05:45:00
#>  5 LGA    ATL          -6       -25 2013-01-01 05:54:00 2013-01-01 06:00:00
#>  6 EWR    ORD          -4        12 2013-01-01 05:54:00 2013-01-01 05:58:00
#>  7 EWR    FLL          -5        19 2013-01-01 05:55:00 2013-01-01 06:00:00
#>  8 LGA    IAD          -3       -14 2013-01-01 05:57:00 2013-01-01 06:00:00
#>  9 JFK    MCO          -3        -8 2013-01-01 05:57:00 2013-01-01 06:00:00
#> 10 LGA    ORD          -2         8 2013-01-01 05:58:00 2013-01-01 06:00:00
#> # ... with 328,053 more rows, and 3 more variables: arr_time ,
#> #   sched_arr_time , air_time 
…
# the scheduled departure time, does not show such
(sched_dep <- flights_dt %>% 
  mutate(minute = minute(sched_dep_time)) %>% 
  group_by(minute) %>% 
  summarise(avg_delay = mean(dep_delay, na.rm = TRUE),
            n = n())) 
#> # A tibble: 60 x 3
#>    minute avg_delay     n
#>     <int>     <dbl> <int>
#>  1      0      8.82 59019
#>  2      1     16.6   2085
#>  3      2     12.9    818
#>  4      3     19.8   1381
#>  5      4     16.8   1323
#>  6      5     12.5  13720
#>  7      6     17.8   1345
#>  8      7     14.5   1068
#>  9      8     12.0   1649
#> 10      9     18.5   1411
#> # ... with 50 more rows
…
Feb is lower but it has less days as well.

Compare dep_time, sched_dep_time and dep_delay. Are they consistent? Explain your findings.

The \(sched\_dep\_time + dep\_delay = dep\_time\). It does for most observations but there is a handful that does not meet this relationship.

flights %>% 
  select(year, month, day, hour, minute, dep_time, sched_dep_time,
         dep_delay)
#> # A tibble: 336,776 x 8
#>     year month   day  hour minute dep_time sched_dep_time dep_delay
#>    <int> <int> <int> <dbl>  <dbl>    <int>          <int>     <dbl>
#>  1  2013     1     1     5     15      517            515         2
#>  2  2013     1     1     5     29      533            529         4
#>  3  2013     1     1     5     40      542            540         2
#>  4  2013     1     1     5     45      544            545        -1
#>  5  2013     1     1     6      0      554            600        -6
#>  6  2013     1     1     5     58      554            558        -4
#>  7  2013     1     1     6      0      555            600        -5
#>  8  2013     1     1     6      0      557            600        -3
#>  9  2013     1     1     6      0      557            600        -3
#> 10  2013     1     1     6      0      558            600        -2
#> # ... with 336,766 more rows
flights_dt %>% 
  select(dep_time, sched_dep_time,
         dep_delay) %>% 
  mutate(act_dep_time = sched_dep_time + 
           hms(str_glue("0, {dep_delay}, 0"))) %>% 
  filter(dep_time != act_dep_time)
#> # A tibble: 1,205 x 4
#>    dep_time            sched_dep_time      dep_delay act_dep_time       
#>    <dttm>              <dttm>                  <dbl> <dttm>             
#>  1 2013-01-01 08:48:00 2013-01-01 18:35:00       853 2013-01-02 08:48:00
#>  2 2013-01-02 00:42:00 2013-01-02 23:59:00        43 2013-01-03 00:42:00
#>  3 2013-01-02 01:26:00 2013-01-02 22:50:00       156 2013-01-03 01:26:00
#>  4 2013-01-03 00:32:00 2013-01-03 23:59:00        33 2013-01-04 00:32:00
#>  5 2013-01-03 00:50:00 2013-01-03 21:45:00       185 2013-01-04 00:50:00
#>  6 2013-01-03 02:35:00 2013-01-03 23:59:00       156 2013-01-04 02:35:00
#>  7 2013-01-04 00:25:00 2013-01-04 23:59:00        26 2013-01-05 00:25:00
#>  8 2013-01-04 01:06:00 2013-01-04 22:45:00       141 2013-01-05 01:06:00
#>  9 2013-01-05 00:14:00 2013-01-05 23:59:00        15 2013-01-06 00:14:00
#> 10 2013-01-05 00:37:00 2013-01-05 22:30:00       127 2013-01-06 00:37:00
#> # ... with 1,195 more rows

Compare air_time with the duration between the departure and arrival. Explain your findings. (Hint: consider the location of the airport.)

flights_dt %>% 
  select(origin, dest, dep_time, arr_time, air_time) %>% 
  filter(!is.na(air_time), !is.na(dep_time), 
         !is.na(arr_time)) %>% 
  mutate(dest_same_tz = dep_time + 
           hms(str_glue("0, {air_time}, 0"))) %>% 
  filter(arr_time == dest_same_tz)
#> # A tibble: 196 x 6
#>    origin dest  dep_time            arr_time            air_time
#>    <chr>  <chr> <dttm>              <dttm>                 <dbl>
#>  1 LGA    BNA   2013-01-07 11:50:00 2013-01-07 13:41:00      111
#>  2 EWR    MSP   2013-01-13 19:47:00 2013-01-13 22:18:00      151
#>  3 LGA    MDW   2013-01-16 06:51:00 2013-01-16 09:14:00      143
#>  4 EWR    HOU   2013-01-16 07:07:00 2013-01-16 11:06:00      239
#>  5 LGA    BNA   2013-01-16 09:43:00 2013-01-16 12:11:00      148
#>  6 LGA    BNA   2013-01-25 16:19:00 2013-01-25 18:26:00      127
#>  7 EWR    ORD   2013-01-30 10:16:00 2013-01-30 12:34:00      138
#>  8 EWR    ORD   2013-01-30 14:19:00 2013-01-30 16:14:00      115
#>  9 EWR    ORD   2013-01-30 21:55:00 2013-01-30 23:47:00      112
#> 10 LGA    ORD   2013-10-02 18:53:00 2013-10-02 20:45:00      112
#> # ... with 186 more rows, and 1 more variable: dest_same_tz <dttm>
…
You best leave on Saturday.

What makes the distribution of diamonds$carat and flights$sched_dep_time similar?

diamonds %>% 
  count(carat, sort = TRUE)
#> # A tibble: 273 x 2
#>    carat     n
#>    <dbl> <int>
#>  1  0.3   2604
#>  2  0.31  2249
#>  3  1.01  2242
#>  4  0.7   1981
#>  5  0.32  1840
#>  6  1     1558
#>  7  0.9   1485
#>  8  0.41  1382
#>  9  0.4   1299
#> 10  0.71  1294
#> # ... with 263 more rows

flights_dt %>% 
  mutate(sched_min = minute(sched_dep_time)) %>% 
  count(sched_min, sort = TRUE)
#> # A tibble: 60 x 2
#>    sched_min     n
#>        <int> <int>
#>  1         0 59019
#>  2        30 33104
#>  3        45 19923
#>  4        15 18393
#>  5        55 18347
#>  6        59 15882
#>  7        10 14162
#>  8        25 14057
#>  9         5 13720
#> 10        29 13482
#> # ... with 50 more rows

# out of curiosity how does actual dep_time look?
flights_dt %>% 
  mutate(min = minute(dep_time)) %>% 
  count(min, sort = TRUE)
#> # A tibble: 60 x 2
#>      min     n
#>    <int> <int>
#>  1    55 10097
#>  2    54  9366
#>  3    56  9161
#>  4    57  8878
#>  5    58  8433
#>  6    53  8378
#>  7    59  7500
#>  8    52  7422
#>  9     0  7160
#> 10    25  6918
#> # ... with 50 more rows
…
one_pm
#> [1] "2016-03-12 13:00:00 EST"
one_pm + ddays(1)
#> [1] "2016-03-13 14:00:00 EDT"
one_pm + days(1)
#> [1] "2016-03-13 13:00:00 EDT"

Some planes appear to have arrived at their destination before they departed from NYC.

flights_dt %>% 
  filter(arr_time < dep_time)
#> # A tibble: 10,633 x 9
#>    origin dest  dep_delay arr_delay dep_time            sched_dep_time     
#>    <chr>  <chr>     <dbl>     <dbl> <dttm>              <dttm>             
#>  1 EWR    BQN           9        -4 2013-01-01 19:29:00 2013-01-01 19:20:00
#>  2 JFK    DFW          59        NA 2013-01-01 19:39:00 2013-01-01 18:40:00
#>  3 EWR    TPA          -2         9 2013-01-01 20:58:00 2013-01-01 21:00:00
#>  4 EWR    SJU          -6       -12 2013-01-01 21:02:00 2013-01-01 21:08:00
#>  5 EWR    SFO          11       -14 2013-01-01 21:08:00 2013-01-01 20:57:00
#>  6 LGA    FLL         -10        -2 2013-01-01 21:20:00 2013-01-01 21:30:00
#>  7 EWR    MCO          41        43 2013-01-01 21:21:00 2013-01-01 20:40:00
#>  8 JFK    LAX          -7       -24 2013-01-01 21:28:00 2013-01-01 21:35:00
#>  9 EWR    FLL          49        28 2013-01-01 21:34:00 2013-01-01 20:45:00
#> 10 EWR    FLL          -9       -14 2013-01-01 21:36:00 2013-01-01 21:45:00
#> # ... with 10,623 more rows, and 3 more variables: arr_time <dttm>,
#> #   sched_arr_time <dttm>, air_time <dbl>

They are overnight flights and incorrectly have the same date information for both the departure and the arrival times.

(flights_dt <- flights_dt %>% 
  mutate(overnight = arr_time < dep_time,
         arr_time = arr_time + days(overnight * 1),
         sched_arr_time = sched_arr_time + days(overnight + 1))) %>% 
  filter(overnight == TRUE) %>% 
  print(width = Inf)
#> # A tibble: 10,633 x 10
#>    origin dest  dep_delay arr_delay dep_time            sched_dep_time     
#>    <chr>  <chr>     <dbl>     <dbl> <dttm>              <dttm>             
#>  1 EWR    BQN           9        -4 2013-01-01 19:29:00 2013-01-01 19:20:00
#>  2 JFK    DFW          59        NA 2013-01-01 19:39:00 2013-01-01 18:40:00
#>  3 EWR    TPA          -2         9 2013-01-01 20:58:00 2013-01-01 21:00:00
#>  4 EWR    SJU          -6       -12 2013-01-01 21:02:00 2013-01-01 21:08:00
#>  5 EWR    SFO          11       -14 2013-01-01 21:08:00 2013-01-01 20:57:00
#>  6 LGA    FLL         -10        -2 2013-01-01 21:20:00 2013-01-01 21:30:00
#>  7 EWR    MCO          41        43 2013-01-01 21:21:00 2013-01-01 20:40:00
#>  8 JFK    LAX          -7       -24 2013-01-01 21:28:00 2013-01-01 21:35:00
#>  9 EWR    FLL          49        28 2013-01-01 21:34:00 2013-01-01 20:45:00
#> 10 EWR    FLL          -9       -14 2013-01-01 21:36:00 2013-01-01 21:45:00
#>    arr_time            sched_arr_time      air_time overnight
#>    <dttm>              <dttm>                 <dbl> <lgl>    
#>  1 2013-01-02 00:03:00 2013-01-03 00:07:00      192 TRUE     
#>  2 2013-01-02 00:29:00 2013-01-03 21:51:00       NA TRUE     
#>  3 2013-01-02 00:08:00 2013-01-03 23:59:00      159 TRUE     
#>  4 2013-01-02 01:46:00 2013-01-03 01:58:00      199 TRUE     
#>  5 2013-01-02 00:25:00 2013-01-03 00:39:00      354 TRUE     
#>  6 2013-01-02 00:16:00 2013-01-03 00:18:00      160 TRUE     
#>  7 2013-01-02 00:06:00 2013-01-03 23:23:00      143 TRUE     
#>  8 2013-01-02 00:26:00 2013-01-03 00:50:00      338 TRUE     
#>  9 2013-01-02 00:20:00 2013-01-03 23:52:00      152 TRUE     
#> 10 2013-01-02 00:25:00 2013-01-03 00:39:00      154 TRUE     
#> # ... with 10,623 more rows
…
