Chapter 1 - Data Viz with ggplot
…
6c088b5

sciencificity

2020-08-14

Add Chapter 1

Do cars with big engines use more fuel than cars with small engines?

Hypothesis: Cars with bigger engines use more fuel, i.e. the fuel efficiency declines as the engine size gets bigger. If miles per gallon was on the y-axis and engine size on the x-axis we would see a decreasing trend.

ggplot2::mpg

# A tibble: 234 x 11
   manufacturer model    displ  year   cyl trans   drv     cty   hwy fl    class
   <chr>        <chr>    <dbl> <int> <int> <chr>   <chr> <int> <int> <chr> <chr>
 1 audi         a4         1.8  1999     4 auto(l~ f        18    29 p     comp~
 2 audi         a4         1.8  1999     4 manual~ f        21    29 p     comp~
 3 audi         a4         2    2008     4 manual~ f        20    31 p     comp~
 4 audi         a4         2    2008     4 auto(a~ f        21    30 p     comp~
 5 audi         a4         2.8  1999     6 auto(l~ f        16    26 p     comp~
 6 audi         a4         2.8  1999     6 manual~ f        18    26 p     comp~
 7 audi         a4         3.1  2008     6 auto(a~ f        18    27 p     comp~
 8 audi         a4 quat~   1.8  1999     4 manual~ 4        18    26 p     comp~
 9 audi         a4 quat~   1.8  1999     4 auto(l~ 4        16    25 p     comp~
10 audi         a4 quat~   2    2008     4 manual~ 4        20    28 p     comp~
# ... with 224 more rows
…
