Chapter 5 - Exploratory Data Analysis (EDA)
…
penguins %>% 
  count(cut_width(bill_length_mm, 0.6))

# A tibble: 42 x 2
   `cut_width(bill_length_mm, 0.6)`     n
   <fct>                            <int>
 1 [32.1,32.7]                          1
 2 (32.7,33.3]                          1
 3 (33.3,33.9]                          1
 4 (33.9,34.5]                          3
 5 (34.5,35.1]                          5
 6 (35.1,35.7]                          6
 7 (35.7,36.3]                         13
 8 (36.3,36.9]                          9
 9 (36.9,37.5]                          8
10 (37.5,38.1]                         15
# ... with 32 more rows
…
penguins %>% 
  group_by(species) %>% 
  count(cut_width(bill_length_mm, 0.6))

# A tibble: 71 x 3
# Groups:   species [3]
   species `cut_width(bill_length_mm, 0.6)`     n
   <fct>   <fct>                            <int>
 1 Adelie  [32.1,32.7]                          1
 2 Adelie  (32.7,33.3]                          1
 3 Adelie  (33.3,33.9]                          1
 4 Adelie  (33.9,34.5]                          3
 5 Adelie  (34.5,35.1]                          5
 6 Adelie  (35.1,35.7]                          6
 7 Adelie  (35.7,36.3]                         13
 8 Adelie  (36.3,36.9]                          9
 9 Adelie  (36.9,37.5]                          8
10 Adelie  (37.5,38.1]                         15
# ... with 61 more rows
…
