Chapter 7 - Tibbles
…
Class

class(iris) # initially R's data.frame

[1] "data.frame"

(iris2 <- as_tibble(iris))

# A tibble: 150 x 5
   Sepal.Length Sepal.Width Petal.Length Petal.Width Species
          <dbl>       <dbl>        <dbl>       <dbl> <fct>  
 1          5.1         3.5          1.4         0.2 setosa 
 2          4.9         3            1.4         0.2 setosa 
 3          4.7         3.2          1.3         0.2 setosa 
 4          4.6         3.1          1.5         0.2 setosa 
 5          5           3.6          1.4         0.2 setosa 
 6          5.4         3.9          1.7         0.4 setosa 
 7          4.6         3.4          1.4         0.3 setosa 
 8          5           3.4          1.5         0.2 setosa 
 9          4.4         2.9          1.4         0.2 setosa 
10          4.9         3.1          1.5         0.1 setosa 
# ... with 140 more rows
…
Printing

tibble(
  a = lubridate::now() + runif(1e3) * 86400,
  b = lubridate::today() + runif(1e3) * 30,
  c = 1:1e3,
  d = runif(1e3),
  e = sample(letters, 1e3, replace = TRUE)
) %>% 
  print(n = 15, width = Inf) # show 15 rows instead of 10, and all cols

# A tibble: 1,000 x 5
   a                   b              c      d e    
   <dttm>              <date>     <int>  <dbl> <chr>
 1 2020-10-19 06:10:11 2020-11-14     1 0.445  s    
 2 2020-10-19 00:44:40 2020-10-20     2 0.637  b    
 3 2020-10-19 01:48:20 2020-10-28     3 0.621  f    
 4 2020-10-19 03:54:30 2020-11-14     4 0.925  w    
 5 2020-10-19 00:43:55 2020-10-18     5 0.678  k    
 6 2020-10-19 18:18:19 2020-10-22     6 0.643  a    
 7 2020-10-19 10:23:37 2020-11-13     7 0.169  k    
 8 2020-10-18 20:13:23 2020-10-21     8 0.681  q    
 9 2020-10-19 01:08:59 2020-10-27     9 0.767  u    
10 2020-10-18 18:59:17 2020-10-25    10 0.645  h    
11 2020-10-19 14:35:41 2020-11-06    11 0.954  g    
12 2020-10-19 17:38:38 2020-11-11    12 0.0452 t    
13 2020-10-18 20:34:14 2020-11-14    13 0.679  l    
14 2020-10-19 13:29:21 2020-10-23    14 0.543  e    
15 2020-10-19 17:03:12 2020-10-20    15 0.731  a    
# ... with 985 more rows
…
class(mtcars)

[1] "data.frame"

Tibbles:

Print only 10 rows, and as many columns as will fit on the console / screen

If you find the calss of a tibble among the output should be tbl_df and tbl.

penguins

# A tibble: 344 x 8
   species island bill_length_mm bill_depth_mm flipper_length_~ body_mass_g
   <fct>   <fct>           <dbl>         <dbl>            <int>       <int>
 1 Adelie  Torge~           39.1          18.7              181        3750
 2 Adelie  Torge~           39.5          17.4              186        3800
 3 Adelie  Torge~           40.3          18                195        3250
 4 Adelie  Torge~           NA            NA                 NA          NA
 5 Adelie  Torge~           36.7          19.3              193        3450
 6 Adelie  Torge~           39.3          20.6              190        3650
 7 Adelie  Torge~           38.9          17.8              181        3625
 8 Adelie  Torge~           39.2          19.6              195        4675
 9 Adelie  Torge~           34.1          18.1              193        3475
10 Adelie  Torge~           42            20.2              190        4250
# ... with 334 more rows, and 2 more variables: sex <fct>, year <int>
…
The data frame does not have an x variable, yet with a data.frame it prints a value for x since it does partial matching.

The data frame has a character attribute for the column xyz yet the data.frame converts it to a factor, and outputs the factors levels. 😨

The information about the type of data contained in every variable when you print a tibble is useful 💯.

If you have the name of a variable stored in an object, e.g. var <- "mpg", how can you extract the reference variable from a tibble?

var <- "mpg"
(test_tbl <- as_tibble(mtcars))

# A tibble: 32 x 11
     mpg   cyl  disp    hp  drat    wt  qsec    vs    am  gear  carb
   <dbl> <dbl> <dbl> <dbl> <dbl> <dbl> <dbl> <dbl> <dbl> <dbl> <dbl>
 1  21       6  160    110  3.9   2.62  16.5     0     1     4     4
 2  21       6  160    110  3.9   2.88  17.0     0     1     4     4
 3  22.8     4  108     93  3.85  2.32  18.6     1     1     4     1
 4  21.4     6  258    110  3.08  3.22  19.4     1     0     3     1
 5  18.7     8  360    175  3.15  3.44  17.0     0     0     3     2
 6  18.1     6  225    105  2.76  3.46  20.2     1     0     3     1
 7  14.3     8  360    245  3.21  3.57  15.8     0     0     3     4
 8  24.4     4  147.    62  3.69  3.19  20       1     0     4     2
 9  22.8     4  141.    95  3.92  3.15  22.9     1     0     4     2
10  19.2     6  168.   123  3.92  3.44  18.3     1     0     4     4
# ... with 22 more rows
…
