Chapter 8 - Data Import
…
[1] "double"

guess_parser(c("12,352,561"))

[1] "number"

str(parse_guess("2010-10-10"))

 Date[1:1], format: "2010-10-10"

challenge <- read_csv(readr_example("challenge.csv"))

problems(challenge)

# A tibble: 1,000 x 5
     row col   expected       actual   file                                     
   <int> <chr> <chr>          <chr>    <chr>                                    
 1  1001 y     1/0/T/F/TRUE/~ 2015-01~ 'C:/Users/vebashini/Documents/R/win-libr~
 2  1002 y     1/0/T/F/TRUE/~ 2018-05~ 'C:/Users/vebashini/Documents/R/win-libr~
 3  1003 y     1/0/T/F/TRUE/~ 2015-09~ 'C:/Users/vebashini/Documents/R/win-libr~
 4  1004 y     1/0/T/F/TRUE/~ 2012-11~ 'C:/Users/vebashini/Documents/R/win-libr~
 5  1005 y     1/0/T/F/TRUE/~ 2020-01~ 'C:/Users/vebashini/Documents/R/win-libr~
 6  1006 y     1/0/T/F/TRUE/~ 2016-04~ 'C:/Users/vebashini/Documents/R/win-libr~
 7  1007 y     1/0/T/F/TRUE/~ 2011-05~ 'C:/Users/vebashini/Documents/R/win-libr~
 8  1008 y     1/0/T/F/TRUE/~ 2020-07~ 'C:/Users/vebashini/Documents/R/win-libr~
 9  1009 y     1/0/T/F/TRUE/~ 2011-04~ 'C:/Users/vebashini/Documents/R/win-libr~
10  1010 y     1/0/T/F/TRUE/~ 2010-05~ 'C:/Users/vebashini/Documents/R/win-libr~
# ... with 990 more rows
…
# A tibble: 0 x 2
# ... with 2 variables: x <dbl>, y <date>

challenge %>% 
  head(1000) %>% 
  filter(x%%1!=0)

# A tibble: 0 x 2
# ... with 2 variables: x <dbl>, y <date>

challenge %>% 
  tail(1000) %>% 
  filter(as.integer(x) != x)

# A tibble: 1,000 x 2
       x y         
   <dbl> <date>    
 1 0.238 2015-01-16
 2 0.412 2018-05-18
 3 0.746 2015-09-05
 4 0.723 2012-11-28
 5 0.615 2020-01-13
 6 0.474 2016-04-17
 7 0.578 2011-05-14
 8 0.242 2020-07-18
 9 0.114 2011-04-30
10 0.298 2010-05-11
# ... with 990 more rows
…
Other strategies for read issues

Guess a few more rows

challenge2 <- read_csv(readr_example("challenge.csv"), 
                       guess_max = 1001)
challenge2

# A tibble: 2,000 x 2
       x y         
   <dbl> <date>    
 1   404 NA        
 2  4172 NA        
 3  3004 NA        
 4   787 NA        
 5    37 NA        
 6  2332 NA        
 7  2489 NA        
 8  1449 NA        
 9  3665 NA        
10  3863 NA        
# ... with 1,990 more rows
…
