Chapter 9 - Tidy Data with tidyr
…
Case Study

who

# A tibble: 7,240 x 60
   country iso2  iso3   year new_sp_m014 new_sp_m1524 new_sp_m2534 new_sp_m3544
   <chr>   <chr> <chr> <int>       <int>        <int>        <int>        <int>
 1 Afghan~ AF    AFG    1980          NA           NA           NA           NA
 2 Afghan~ AF    AFG    1981          NA           NA           NA           NA
 3 Afghan~ AF    AFG    1982          NA           NA           NA           NA
 4 Afghan~ AF    AFG    1983          NA           NA           NA           NA
 5 Afghan~ AF    AFG    1984          NA           NA           NA           NA
 6 Afghan~ AF    AFG    1985          NA           NA           NA           NA
 7 Afghan~ AF    AFG    1986          NA           NA           NA           NA
 8 Afghan~ AF    AFG    1987          NA           NA           NA           NA
 9 Afghan~ AF    AFG    1988          NA           NA           NA           NA
10 Afghan~ AF    AFG    1989          NA           NA           NA           NA
# ... with 7,230 more rows, and 52 more variables: new_sp_m4554 <int>,
#   new_sp_m5564 <int>, new_sp_m65 <int>, new_sp_f014 <int>,
#   new_sp_f1524 <int>, new_sp_f2534 <int>, new_sp_f3544 <int>,
#   new_sp_f4554 <int>, new_sp_f5564 <int>, new_sp_f65 <int>,
#   new_sn_m014 <int>, new_sn_m1524 <int>, new_sn_m2534 <int>,
#   new_sn_m3544 <int>, new_sn_m4554 <int>, new_sn_m5564 <int>,
#   new_sn_m65 <int>, new_sn_f014 <int>, new_sn_f1524 <int>,
#   new_sn_f2534 <int>, new_sn_f3544 <int>, new_sn_f4554 <int>,
#   new_sn_f5564 <int>, new_sn_f65 <int>, new_ep_m014 <int>,
…
(
  who1 <- who %>% 
          # change the wide data to long data
          pivot_longer(
            cols = new_sp_m014:newrel_f65, 
            names_to = "key", 
            values_to = "cases", 
            values_drop_na = TRUE
          )
)

# A tibble: 76,046 x 6
   country     iso2  iso3   year key          cases
   <chr>       <chr> <chr> <int> <chr>        <int>
 1 Afghanistan AF    AFG    1997 new_sp_m014      0
 2 Afghanistan AF    AFG    1997 new_sp_m1524    10
 3 Afghanistan AF    AFG    1997 new_sp_m2534     6
 4 Afghanistan AF    AFG    1997 new_sp_m3544     3
 5 Afghanistan AF    AFG    1997 new_sp_m4554     5
 6 Afghanistan AF    AFG    1997 new_sp_m5564     2
 7 Afghanistan AF    AFG    1997 new_sp_m65       0
 8 Afghanistan AF    AFG    1997 new_sp_f014      5
 9 Afghanistan AF    AFG    1997 new_sp_f1524    38
10 Afghanistan AF    AFG    1997 new_sp_f2534    36
# ... with 76,036 more rows
…
To parse the columns, refer to Chaper 9 (Chapter 12 online).

(who2 <- who1 %>% 
  # Look in key. Do you see any strings that have "newrel"?
  # If you do replace these with new_rel for consistent
  # key values for easier parsing
  mutate(key = stringr::str_replace(key,
                                    "newrel",
                                    "new_rel")))

# A tibble: 76,046 x 6
   country     iso2  iso3   year key          cases
   <chr>       <chr> <chr> <int> <chr>        <int>
 1 Afghanistan AF    AFG    1997 new_sp_m014      0
 2 Afghanistan AF    AFG    1997 new_sp_m1524    10
 3 Afghanistan AF    AFG    1997 new_sp_m2534     6
 4 Afghanistan AF    AFG    1997 new_sp_m3544     3
 5 Afghanistan AF    AFG    1997 new_sp_m4554     5
 6 Afghanistan AF    AFG    1997 new_sp_m5564     2
 7 Afghanistan AF    AFG    1997 new_sp_m65       0
 8 Afghanistan AF    AFG    1997 new_sp_f014      5
 9 Afghanistan AF    AFG    1997 new_sp_f1524    38
10 Afghanistan AF    AFG    1997 new_sp_f2534    36
# ... with 76,036 more rows

(
  who3 <- who2 %>% 
    separate(key,
             c("new", "type", "sexage"),
             sep = "_")
)

# A tibble: 76,046 x 8
   country     iso2  iso3   year new   type  sexage cases
   <chr>       <chr> <chr> <int> <chr> <chr> <chr>  <int>
 1 Afghanistan AF    AFG    1997 new   sp    m014       0
 2 Afghanistan AF    AFG    1997 new   sp    m1524     10
 3 Afghanistan AF    AFG    1997 new   sp    m2534      6
 4 Afghanistan AF    AFG    1997 new   sp    m3544      3
 5 Afghanistan AF    AFG    1997 new   sp    m4554      5
 6 Afghanistan AF    AFG    1997 new   sp    m5564      2
 7 Afghanistan AF    AFG    1997 new   sp    m65        0
 8 Afghanistan AF    AFG    1997 new   sp    f014       5
 9 Afghanistan AF    AFG    1997 new   sp    f1524     38
10 Afghanistan AF    AFG    1997 new   sp    f2534     36
# ... with 76,036 more rows
…
# A tibble: 1 x 2
  new       n
  <chr> <int>
1 new   76046

This is indeed the case! The count == the dataset count so we can drop this column

(
  who4 <- who3 %>% 
    select(-new, -iso2, iso3)
)

# A tibble: 76,046 x 6
   country     iso3   year type  sexage cases
   <chr>       <chr> <int> <chr> <chr>  <int>
 1 Afghanistan AFG    1997 sp    m014       0
 2 Afghanistan AFG    1997 sp    m1524     10
 3 Afghanistan AFG    1997 sp    m2534      6
 4 Afghanistan AFG    1997 sp    m3544      3
 5 Afghanistan AFG    1997 sp    m4554      5
 6 Afghanistan AFG    1997 sp    m5564      2
 7 Afghanistan AFG    1997 sp    m65        0
 8 Afghanistan AFG    1997 sp    f014       5
 9 Afghanistan AFG    1997 sp    f1524     38
10 Afghanistan AFG    1997 sp    f2534     36
# ... with 76,036 more rows

Let’s separate the sexage column.

(
  who5 <- who4 %>% 
    separate(sexage, c("sex", "age"),
             sep = 1)
)

# A tibble: 76,046 x 7
   country     iso3   year type  sex   age   cases
   <chr>       <chr> <int> <chr> <chr> <chr> <int>
 1 Afghanistan AFG    1997 sp    m     014       0
 2 Afghanistan AFG    1997 sp    m     1524     10
 3 Afghanistan AFG    1997 sp    m     2534      6
 4 Afghanistan AFG    1997 sp    m     3544      3
 5 Afghanistan AFG    1997 sp    m     4554      5
 6 Afghanistan AFG    1997 sp    m     5564      2
 7 Afghanistan AFG    1997 sp    m     65        0
 8 Afghanistan AFG    1997 sp    f     014       5
 9 Afghanistan AFG    1997 sp    f     1524     38
10 Afghanistan AFG    1997 sp    f     2534     36
# ... with 76,036 more rows
…
who %>% 
  pivot_longer(cols = new_sp_m014:newrel_f65,
               names_to = "key",
               values_to = "cases",
               values_drop_na = TRUE) %>% 
  mutate(key = stringr::str_replace(key, "newrel", "new_rel")) %>% 
  separate(key, c("new", "type", "sexage"),
                  sep = "_") %>% 
  select(-new, -iso2, -iso3) %>% 
  separate(sexage, c("sex", "age"),
           # first pos = sex, rest = age group
           sep = 1)

# A tibble: 76,046 x 6
   country      year type  sex   age   cases
   <chr>       <int> <chr> <chr> <chr> <int>
 1 Afghanistan  1997 sp    m     014       0
 2 Afghanistan  1997 sp    m     1524     10
 3 Afghanistan  1997 sp    m     2534      6
 4 Afghanistan  1997 sp    m     3544      3
 5 Afghanistan  1997 sp    m     4554      5
 6 Afghanistan  1997 sp    m     5564      2
 7 Afghanistan  1997 sp    m     65        0
 8 Afghanistan  1997 sp    f     014       5
 9 Afghanistan  1997 sp    f     1524     38
10 Afghanistan  1997 sp    f     2534     36
# ... with 76,036 more rows
…
Let’s take for example newrel_m3544

in the separate(key, …) step new = newrel, type = m3544

this will complicate the dropping of “new”

it will also mean that type would be m3544.

I claimed that iso2 and iso3 were redundant with country. Confirm this claim.

who %>% 
  count(country, sort = TRUE)

# A tibble: 219 x 2
   country                 n
   <chr>               <int>
 1 Afghanistan            34
 2 Albania                34
 3 Algeria                34
 4 American Samoa         34
 5 Andorra                34
 6 Angola                 34
 7 Anguilla               34
 8 Antigua and Barbuda    34
 9 Argentina              34
10 Armenia                34
# ... with 209 more rows

who %>% 
  count(iso2, sort = TRUE)

# A tibble: 219 x 2
   iso2      n
   <chr> <int>
 1 AD       34
 2 AE       34
 3 AF       34
 4 AG       34
 5 AI       34
 6 AL       34
 7 AM       34
 8 AO       34
 9 AR       34
10 AS       34
# ... with 209 more rows

who %>% 
  count(iso3, sort = TRUE)

# A tibble: 219 x 2
   iso3      n
   <chr> <int>
 1 ABW      34
 2 AFG      34
 3 AGO      34
 4 AIA      34
 5 ALB      34
 6 AND      34
 7 ARE      34
 8 ARG      34
 9 ARM      34
10 ASM      34
# ... with 209 more rows
…
