Sample Exam 1
…
# How many countries reported data
health_data %>% 
  count(iso3, sort = TRUE)

# A tibble: 100 x 2
   iso3      n
   <chr> <int>
 1 BGD       6
 2 PER       6
 3 EGY       5
 4 GHA       5
 5 MWI       5
 6 NGA       5
 7 KHM       4
 8 NPL       4
 9 RWA       4
10 SEN       4
# ... with 90 more rows

health_data %>% 
  distinct(iso3)

# A tibble: 100 x 1
   iso3 
   <chr>
 1 AFG  
 2 ALB  
 3 ARG  
 4 ARM  
 5 AZE  
 6 BGD  
 7 BRB  
 8 BLR  
 9 BLZ  
10 BEN  
# ... with 90 more rows

# What is the difference between the minimum and maximum year 
# with valid data for each country?
health_data %>% 
  arrange(iso3, year) %>% 
  group_by(iso3) %>% 
  summarise(n = n(),
            min_yr = min(year),
            max_yr = max(year),
            diff = max_yr - min_yr)

# A tibble: 100 x 5
   iso3      n min_yr max_yr  diff
   <chr> <int>  <dbl>  <dbl> <dbl>
 1 AFG       1   2010   2010     0
 2 ALB       2   2005   2008     3
 3 ARG       1   2012   2012     0
 4 ARM       3   2000   2010    10
 5 AZE       1   2006   2006     0
 6 BDI       2   2005   2010     5
 7 BEN       3   2001   2011    10
 8 BFA       3   2003   2010     7
 9 BGD       6   2004   2014    10
10 BIH       2   2006   2011     5
# ... with 90 more rows

# How many countries reported data in 3 or more years?
health_data %>% 
  count(iso3, sort = TRUE) %>% 
  filter(n >= 3)

# A tibble: 34 x 2
   iso3      n
   <chr> <int>
 1 BGD       6
 2 PER       6
 3 EGY       5
 4 GHA       5
 5 MWI       5
 6 NGA       5
 7 KHM       4
 8 NPL       4
 9 RWA       4
10 SEN       4
# ... with 24 more rows
…
rankings %>% 
  count(rank, sort = TRUE)

# A tibble: 4 x 2
  rank            n
  <chr>       <int>
1 positive     3865
2 indifferent  1431
3 negative      985
4 wtf           179

rankings %>% 
  count(item, sort = TRUE)

# A tibble: 284 x 2
    item     n
   <dbl> <int>
 1    80    33
 2   217    33
 3    18    32
 4    81    31
 5   107    31
 6   136    31
 7   148    31
 8    12    30
 9    15    30
10    19    30
# ... with 274 more rows
…
